{
  "variables": {
    "packer_subnet": "",
    "runner_token": "{{env `RUNNER_TOKEN`}}"
  },
  "builders": [{
    "type": "amazon-ebs",
    "region": "us-east-1",
    "subnet_id": "{{user `packer_subnet`}}",
    "source_ami_filter": {
      "filters": {
	"virtualization-type": "hvm",
	"name": "debian-stretch*",
	"root-device-type": "ebs"
      },
      "owners": ["379101102735"],
      "most_recent": true
    },
    "instance_type": "t2.medium",
    "ssh_username": "admin",
    "ami_name": "runner-{{isotime \"2006-01-02_1504\"}}",
    "tags": {
      "Name": "Gitlab runner AMI"
    }
  }],
  "provisioners": [
    {
      "type": "file",
      "source": "./",
      "destination": "/tmp"
    },
    {
      "type": "shell",
      "script": "setup_runner.bash",
      "environment_vars": [
	"RUNNER_TOKEN={{user `runner_token`}}"
      ]
    }
  ]
}
